[gd_scene format=2]

[node name="FriendlySpaceship" type="Control"]
__meta__ = {
"_edit_use_anchors_": false
}

[node name="ColorRect" type="ColorRect" parent="."]
margin_right = 40.0
margin_bottom = 40.0
color = Color( 0.309804, 0.788235, 0.517647, 1 )
__meta__ = {
"_edit_use_anchors_": false
}
